# BLASTN 2.2.31+
# Query: gi|5933095|gb|AW057380.1|AW057380 ca03b01.x1 C elegans fem3 Q23 S1 Caenorhabditis elegans cDNA 3' similar to gb:Y39G10A_244.b (ELEGANS);, mRNA sequence
# Database: ../data/D3/scaffolds/SRR065390_scaffolds_gr200_230215/a_blastDB
# Fields: query id, subject id, % identity, alignment length, mismatches, gap opens, q. start, q. end, s. start, s. end, evalue, bit score
# 59 hits found
gi|5933095|gb|AW057380.1|AW057380	scaffold492|size19521	99.11	337	3	0	13	349	19185	19521	2e-174	612
gi|5933095|gb|AW057380.1|AW057380	scaffold2868|size10773	99.08	325	3	0	186	510	348	24	5e-166	584
gi|5933095|gb|AW057380.1|AW057380	scaffold9246|size2482	97.63	338	6	2	14	351	2147	2482	2e-164	579
gi|5933095|gb|AW057380.1|AW057380	scaffold5002|size5795	95.34	343	11	5	13	352	1829	2169	1e-152	540
gi|5933095|gb|AW057380.1|AW057380	scaffold15209|size300	98.00	300	6	0	75	374	300	1	4e-147	521
gi|5933095|gb|AW057380.1|AW057380	scaffold2587|size18106	93.90	295	5	3	216	510	7409	7128	2e-120	433
gi|5933095|gb|AW057380.1|AW057380	scaffold2587|size18106	94.92	118	3	2	16	133	6914	6800	8e-45	182
gi|5933095|gb|AW057380.1|AW057380	scaffold2587|size18106	97.67	43	1	0	310	352	7214	7172	1e-12	75.0
gi|5933095|gb|AW057380.1|AW057380	scaffold7029|size7290	98.31	236	4	0	117	352	1	236	7e-115	414
gi|5933095|gb|AW057380.1|AW057380	scaffold7029|size7290	94.25	87	1	1	424	510	194	276	3e-29	130
gi|5933095|gb|AW057380.1|AW057380	scaffold12707|size802	98.07	207	2	2	14	220	498	702	3e-98	359
gi|5933095|gb|AW057380.1|AW057380	scaffold343|size111928	98.92	186	2	0	325	510	43144	43329	2e-90	333
gi|5933095|gb|AW057380.1|AW057380	scaffold343|size111928	100.00	119	0	0	14	132	43473	43591	2e-56	220
gi|5933095|gb|AW057380.1|AW057380	scaffold343|size111928	96.72	122	0	2	14	132	43014	42894	2e-50	200
gi|5933095|gb|AW057380.1|AW057380	scaffold343|size111928	93.18	132	3	1	335	466	43046	43171	1e-47	191
gi|5933095|gb|AW057380.1|AW057380	scaffold343|size111928	100.00	42	0	0	311	352	43244	43285	1e-13	78.7
gi|5933095|gb|AW057380.1|AW057380	scaffold179|size30622	97.83	138	2	1	16	153	5998	5862	2e-61	237
gi|5933095|gb|AW057380.1|AW057380	scaffold115|size60056	99.16	119	0	1	14	132	132	249	3e-54	213
gi|5933095|gb|AW057380.1|AW057380	scaffold2270|size10128	98.32	119	1	1	14	132	2913	3030	1e-52	207
gi|5933095|gb|AW057380.1|AW057380	scaffold2151|size8487	98.32	119	1	1	14	132	7455	7572	1e-52	207
gi|5933095|gb|AW057380.1|AW057380	scaffold3287|size14826	97.50	120	2	1	13	132	2886	3004	2e-51	204
gi|5933095|gb|AW057380.1|AW057380	scaffold5947|size3492	97.48	119	2	1	14	132	194	311	6e-51	202
gi|5933095|gb|AW057380.1|AW057380	scaffold1126|size11378	96.64	119	3	1	14	132	4663	4780	3e-49	196
gi|5933095|gb|AW057380.1|AW057380	scaffold11119|size1045	91.61	143	8	3	14	153	45	186	1e-48	195
gi|5933095|gb|AW057380.1|AW057380	scaffold11119|size1045	91.60	119	4	4	16	132	825	939	4e-38	159
gi|5933095|gb|AW057380.1|AW057380	scaffold308|size74992	95.80	119	4	1	14	132	37937	38054	1e-47	191
gi|5933095|gb|AW057380.1|AW057380	scaffold1043|size31900	98.15	108	1	1	14	121	5155	5049	2e-46	187
gi|5933095|gb|AW057380.1|AW057380	scaffold6245|size4603	95.73	117	2	2	16	132	162	275	6e-46	185
gi|5933095|gb|AW057380.1|AW057380	scaffold6204|size4588	95.65	115	2	2	16	130	3002	3113	8e-45	182
gi|5933095|gb|AW057380.1|AW057380	scaffold6121|size4845	94.87	117	0	4	13	127	1600	1712	1e-43	178
gi|5933095|gb|AW057380.1|AW057380	scaffold6121|size4845	100.00	59	0	0	74	132	1733	1791	4e-23	110
gi|5933095|gb|AW057380.1|AW057380	scaffold1960|size34277	94.12	119	2	3	16	132	32005	32120	4e-43	176
gi|5933095|gb|AW057380.1|AW057380	scaffold1822|size16958	94.69	113	1	3	17	127	16849	16958	2e-41	171
gi|5933095|gb|AW057380.1|AW057380	scaffold5375|size7608	94.55	110	3	2	16	125	107	1	2e-40	167
gi|5933095|gb|AW057380.1|AW057380	scaffold4093|size8431	91.67	120	8	2	13	132	5512	5395	8e-40	165
gi|5933095|gb|AW057380.1|AW057380	scaffold4093|size8431	91.67	120	8	2	13	132	6187	6070	8e-40	165
gi|5933095|gb|AW057380.1|AW057380	scaffold9760|size1227	92.79	111	2	4	16	124	107	1	5e-37	156
gi|5933095|gb|AW057380.1|AW057380	scaffold570|size67136	90.76	119	5	4	16	132	19292	19406	2e-36	154
gi|5933095|gb|AW057380.1|AW057380	scaffold6171|size3105	88.89	126	2	3	16	132	483	361	1e-33	145
gi|5933095|gb|AW057380.1|AW057380	scaffold1989|size24820	100.00	74	0	0	59	132	24820	24747	2e-31	137
gi|5933095|gb|AW057380.1|AW057380	scaffold3599|size17541	89.72	107	7	4	13	116	10960	11065	2e-30	134
gi|5933095|gb|AW057380.1|AW057380	scaffold6820|size3433	100.00	70	0	0	63	132	1	70	3e-29	130
gi|5933095|gb|AW057380.1|AW057380	scaffold3727|size15450	88.03	117	5	5	16	130	13792	13683	3e-29	130
gi|5933095|gb|AW057380.1|AW057380	scaffold15106|size306	98.57	70	0	1	14	83	238	306	5e-27	122
gi|5933095|gb|AW057380.1|AW057380	scaffold14090|size385	100.00	63	0	0	448	510	385	323	2e-25	117
gi|5933095|gb|AW057380.1|AW057380	scaffold14090|size385	100.00	40	0	0	14	53	112	73	1e-12	75.0
gi|5933095|gb|AW057380.1|AW057380	scaffold4469|size4996	100.00	57	0	0	76	132	574	518	5e-22	106
gi|5933095|gb|AW057380.1|AW057380	scaffold4469|size4996	98.18	55	0	1	14	68	676	623	1e-18	95.3
gi|5933095|gb|AW057380.1|AW057380	scaffold1153|size11211	83.76	117	5	8	16	131	1228	1125	8e-20	99.0
gi|5933095|gb|AW057380.1|AW057380	scaffold4661|size3802	98.21	56	0	1	81	135	1	56	3e-19	97.1
gi|5933095|gb|AW057380.1|AW057380	scaffold6814|size7063	100.00	51	0	0	82	132	3007	2957	1e-18	95.3
gi|5933095|gb|AW057380.1|AW057380	scaffold6814|size7063	100.00	41	0	0	14	54	3075	3035	4e-13	76.8
gi|5933095|gb|AW057380.1|AW057380	scaffold3218|size5472	100.00	51	0	0	82	132	1	51	1e-18	95.3
gi|5933095|gb|AW057380.1|AW057380	scaffold1044|size34465	100.00	47	0	0	87	133	24461	24507	2e-16	87.9
gi|5933095|gb|AW057380.1|AW057380	scaffold5141|size6672	95.74	47	1	1	14	59	6587	6541	1e-12	75.0
gi|5933095|gb|AW057380.1|AW057380	scaffold1366|size13980	100.00	38	0	0	13	50	38	1	2e-11	71.3
gi|5933095|gb|AW057380.1|AW057380	scaffold8432|size4383	90.20	51	3	2	56	105	140	91	8e-10	65.8
gi|5933095|gb|AW057380.1|AW057380	scaffold253|size73743	100.00	29	0	0	105	133	15191	15219	2e-06	54.7
gi|5933095|gb|AW057380.1|AW057380	scaffold597|size16898	100.00	28	0	0	105	132	6420	6393	6e-06	52.8
# BLAST processed 1 queries
